period,cik,class,shares_outstanding
2017-09-30,1037540,,154320566
2017-12-31,1037540,,154331247
2018-03-31,1037540,,154352316
2018-06-30,1037540,,154399168
2018-09-30,1037540,,154432852
2018-12-31,1037540,,154476085
2019-03-31,1037540,,154514773
2019-06-30,1037540,,154550054
2019-09-30,1037540,,154602120
2019-12-31,1037540,,154885007
2020-03-31,1037540,,155248696
2020-06-30,1037540,,155530877
2020-09-30,1037540,,155649922
2020-12-31,1037540,,155735201
2021-03-31,1037540,,155943786
2021-06-30,1037540,,156133711
2021-09-30,1037540,,156192987
2021-12-31,1037540,,156468687
