period,cik,class,shares_outstanding
2017-09-30,1041061,,339784185
2017-12-31,1041061,,334476019
2018-03-31,1041061,,327201117
2018-06-30,1041061,,319439753
2018-09-30,1041061,,314059688
2018-12-31,1041061,,308937453
2019-03-31,1041061,,306154207
2019-06-30,1041061,,304313434
2019-09-30,1041061,,302914296
2019-12-31,1041061,,301503014
2020-03-31,1041061,,300923526
2020-06-30,1041061,,301264740
2020-09-30,1041061,,300978681
2020-12-31,1041061,,300354049
2021-03-31,1041061,,298751478
2021-06-30,1041061,,296389831
2021-09-30,1041061,,293934094
2021-12-31,1041061,,290755070
