period,cik,class,shares_outstanding
2017-09-30,10456,,544843920
2017-12-31,10456,,541703184
2018-03-31,10456,,537106575
2018-06-30,10456,,534690339
2018-09-30,10456,,532880144
2018-12-31,10456,,519356565
2019-03-31,10456,,510993880
2019-06-30,10456,,510438747
2019-09-30,10456,,509563717
2019-12-31,10456,,508180719
2020-03-31,10456,,508170939
2020-06-30,10456,,506861389
2020-09-30,10456,,509684061
2020-12-31,10456,,506835561
2021-03-31,10456,,503476013
2021-06-30,10456,,500653771
2021-09-30,10456,,500504099
2021-12-31,10456,,501791605
