period,cik,class,shares_outstanding
2017-09-30,1048286,,366857074
2017-12-31,1048286,,359890781
2018-03-31,1048286,,354683227
2018-06-30,1048286,,348827561
2018-09-30,1048286,,342739595
2018-12-31,1048286,,340307460
2019-03-31,1048286,,335989995
2019-06-30,1048286,,330485376
2019-09-30,1048286,,327629105
2019-12-31,1048286,,325414367
2020-03-31,1048286,,324237935
2020-06-30,1048286,,324294722
2020-09-30,1048286,,324326046
2020-12-31,1048286,,324380536
2021-03-31,1048286,,325158083
2021-06-30,1048286,,325651270
2021-09-30,1048286,,325676342
2021-12-31,1048286,,326080648
