period,cik,class,shares_outstanding
2017-09-30,1058290,a,589931067
2017-12-31,1058290,a,588768769
2018-03-31,1058290,a,586894803
2018-06-30,1058290,a,582036355
2018-09-30,1058290,a,579356870
2018-12-31,1058290,a,576554361
2019-03-31,1058290,a,571322434
2019-06-30,1058290,a,557332609
2019-09-30,1058290,a,548915891
2019-12-31,1058290,a,548239200
2020-03-31,1058290,a,543649405
2020-06-30,1058290,a,541746489
2020-09-30,1058290,a,536645354
2020-12-31,1058290,a,532033218
2021-03-31,1058290,a,528593712
2021-06-30,1058290,a,526115681
2021-09-30,1058290,a,525339049
2021-12-31,1058290,a,524810068
