period,cik,class,shares_outstanding
2017-09-30,1070750,,740076096
2017-12-31,1070750,,740843535
2018-03-31,1070750,,741417520
2018-06-30,1070750,,741544029
2018-09-30,1070750,,741916412
2018-12-31,1070750,,741210124
2019-03-31,1070750,,740704221
2019-06-30,1070750,,734208961
2019-09-30,1070750,,722352195
2019-12-31,1070750,,711371560
2020-03-31,1070750,,705408213
2020-06-30,1070750,,705156907
2020-09-30,1070750,,705305987
2020-12-31,1070750,,705348288
2021-03-31,1070750,,705750033
2021-06-30,1070750,,711026547
2021-09-30,1070750,,714012465
2021-12-31,1070750,,714096958
