period,cik,class,shares_outstanding
2017-09-30,1101239,,78125877
2017-12-31,1101239,,78744084
2018-03-31,1101239,,79344586
2018-06-30,1101239,,79487617
2018-09-30,1101239,,80051880
2018-12-31,1101239,,80640686
2019-03-31,1101239,,82559294
2019-06-30,1101239,,84547533
2019-09-30,1101239,,85117225
2019-12-31,1101239,,85367264
2020-03-31,1101239,,85691820
2020-06-30,1101239,,87597914
2020-09-30,1101239,,88922181
2020-12-31,1101239,,89204763
2021-03-31,1101239,,89454744
2021-06-30,1101239,,89694063
2021-09-30,1101239,,89936202
2021-12-31,1101239,,90406773
