period,cik,class,shares_outstanding
2017-09-30,1110803,,146000000
2017-12-31,1110803,,146633928
2018-03-31,1110803,,147000000
2018-06-30,1110803,,147000000
2018-09-30,1110803,,147000000
2018-12-31,1110803,,147000000
2019-03-31,1110803,,147000000
2019-06-30,1110803,,147000000
2019-09-30,1110803,,147000000
2019-12-31,1110803,,147000000
2020-03-31,1110803,,147000000
2020-06-30,1110803,,146326530
2020-09-30,1110803,,146000000
2020-12-31,1110803,,145939285
2021-03-31,1110803,,145965714
2021-06-30,1110803,,146478571
2021-09-30,1110803,,153135164
2021-12-31,1110803,,156713333
