period,cik,class,shares_outstanding
2017-09-30,1113169,,241796332
2017-12-31,1113169,,243575614
2018-03-31,1113169,,242951737
2018-06-30,1113169,,242912933
2018-09-30,1113169,,241316264
2018-12-31,1113169,,237988686
2019-03-31,1113169,,236404818
2019-06-30,1113169,,235795127
2019-09-30,1113169,,234149257
2019-12-31,1113169,,235133545
2020-03-31,1113169,,230457155
2020-06-30,1113169,,227153408
2020-09-30,1113169,,226601057
2020-12-31,1113169,,227364052
2021-03-31,1113169,,227247038
2021-06-30,1113169,,226912492
2021-09-30,1113169,,225375784
2021-12-31,1113169,,226589414
