period,cik,class,shares_outstanding
2017-09-30,1267238,,53834807
2017-12-31,1267238,,52989369
2018-03-31,1267238,,52603124
2018-06-30,1267238,,58978180
2018-09-30,1267238,,62347390
2018-12-31,1267238,,61856248
2019-03-31,1267238,,61572431
2019-06-30,1267238,,61259346
2019-09-30,1267238,,60815362
2019-12-31,1267238,,60179521
2020-03-31,1267238,,59722206
2020-06-30,1267238,,59649529
2020-09-30,1267238,,59061998
2020-12-31,1267238,,58280069
2021-03-31,1267238,,59435524
2021-06-30,1267238,,59410783
2021-09-30,1267238,,57582275
2021-12-31,1267238,,55904947
