period,cik,class,shares_outstanding
2018-06-30,1279363,,44762997
2018-09-30,1279363,,48269503
2018-12-31,1279363,,49993550
2019-03-31,1279363,,50183138
2019-06-30,1279363,,50309416
2019-09-30,1279363,,50322819
