period,cik,class,shares_outstanding
2017-09-30,1285785,,351049649
2017-12-31,1285785,,370214083
2018-03-31,1285785,,385331123
2018-06-30,1285785,,385441968
2018-09-30,1285785,,385465525
2018-12-31,1285785,,385470286
2019-03-31,1285785,,385616768
2019-06-30,1285785,,385837840
2019-09-30,1285785,,381339104
2019-12-31,1285785,,378763799
2020-03-31,1285785,,378929451
2020-06-30,1285785,,379065075
2020-09-30,1285785,,379090013
2020-12-31,1285785,,379092147
2021-03-31,1285785,,379541726
2021-06-30,1285785,,379859008
2021-09-30,1285785,,379257178
2021-12-31,1285785,,372002935
