period,cik,class,shares_outstanding
2017-09-30,1393311,,174028667
2017-12-31,1393311,,174130694
2018-03-31,1393311,,174222576
2018-06-30,1393311,,174236620
2018-09-30,1393311,,174323589
2018-12-31,1393311,,174434444
2019-03-31,1393311,,174510891
2019-06-30,1393311,,174572753
2019-09-30,1393311,,174654127
2019-12-31,1393311,,174722931
2020-03-31,1393311,,174778272
2020-06-30,1393311,,174799203
2020-09-30,1393311,,174814912
2020-12-31,1393311,,174870049
2021-03-31,1393311,,174951154
2021-06-30,1393311,,175146631
2021-09-30,1393311,,175313858
2021-12-31,1393311,,175414598
