period,cik,class,shares_outstanding
2017-09-30,1521332,,266148830
2017-12-31,1521332,,265839794
2018-03-31,1521332,,265098551
2018-06-30,1521332,,264747561
2018-09-30,1521332,,263847826
2018-12-31,1521332,,261016771
2019-03-31,1521332,,258487867
2019-06-30,1521332,,256680121
2019-09-30,1521332,,255546562
2019-12-31,1521332,,255288197
2020-03-31,1521332,,255010511
2020-06-30,1521332,,265516588
2020-09-30,1521332,,270025374
2020-12-31,1521332,,270025374
2021-03-31,1521332,,270313753
2021-06-30,1521332,,270492303
2021-09-30,1521332,,270511975
2021-12-31,1521332,,270514140
