period,cik,class,shares_outstanding
2017-09-30,1601712,,785952535
2017-12-31,1601712,,769475386
2018-03-31,1601712,,756742170
2018-06-30,1601712,,744397012
2018-09-30,1601712,,724280627
2018-12-31,1601712,,713267539
2019-03-31,1601712,,696067204
2019-06-30,1601712,,669980215
2019-09-30,1601712,,650362424
2019-12-31,1601712,,625182529
2020-03-31,1601712,,591042219
2020-06-30,1601712,,583746196
2020-09-30,1601712,,583785650
2020-12-31,1601712,,583850902
2021-03-31,1601712,,582274088
2021-06-30,1601712,,571913019
2021-09-30,1601712,,550958068
2021-12-31,1601712,,529550997
