period,cik,class,shares_outstanding
2018-09-30,1679273,,146455046
2018-12-31,1679273,,146487195
2019-03-31,1679273,,146270146
2019-06-30,1679273,,146099106
2019-09-30,1679273,,146063367
2019-12-31,1679273,,146090357
2020-03-31,1679273,,146039430
2020-06-30,1679273,,146055743
2020-09-30,1679273,,146335179
2020-12-31,1679273,,146355082
2021-03-31,1679273,,146283237
2021-06-30,1679273,,146209968
2021-09-30,1679273,,146070119
2021-12-31,1679273,,145203600
