period,cik,class,shares_outstanding
2020-06-30,1781335,,433079455
2020-09-30,1781335,,433193480
2020-12-31,1781335,,433547097
2021-03-31,1781335,,430122360
2021-06-30,1781335,,427215632
2021-09-30,1781335,,425122319
2021-12-31,1781335,,424918941
