period,cik,class,shares_outstanding
2017-09-30,203527,,91700979
2017-12-31,203527,,91429799
2018-03-31,203527,,91441800
2018-06-30,203527,,91534314
2018-09-30,203527,,91301167
2018-12-31,203527,,90903396
2019-03-31,203527,,90895829
2019-06-30,203527,,91026605
2019-09-30,203527,,90966025
2019-12-31,203527,,90762140
2020-03-31,203527,,90762514
2020-06-30,203527,,90896762
2020-09-30,203527,,91177898
2020-12-31,203527,,91650497
