period,cik,class,shares_outstanding
2017-09-30,21665,,878134970
2017-12-31,21665,,876049594
2018-03-31,21665,,872371690
2018-06-30,21665,,867789048
2018-09-30,21665,,867324470
2018-12-31,21665,,863144702
2019-03-31,21665,,858568501
2019-06-30,21665,,858012035
2019-09-30,21665,,857054679
2019-12-31,21665,,855553859
2020-03-31,21665,,856503477
2020-06-30,21665,,857390608
2020-09-30,21665,,857171345
2020-12-31,21665,,850801677
2021-03-31,21665,,846012744
2021-06-30,21665,,843540471
2021-09-30,21665,,842855917
2021-12-31,21665,,841101587
