period,cik,class,shares_outstanding
2017-09-30,26172,,166003859
2017-12-31,26172,,165761258
2018-03-31,26172,,164804294
2018-06-30,26172,,163343334
2018-09-30,26172,,160591521
2018-12-31,26172,,158196455
2019-03-31,26172,,157489627
2019-06-30,26172,,157783090
2019-09-30,26172,,153203601
2019-12-31,26172,,151026809
2020-03-31,26172,,147527728
2020-06-30,26172,,147679159
2020-09-30,26172,,147999233
2020-12-31,26172,,147661257
2021-03-31,26172,,146279971
2021-06-30,26172,,143749767
2021-09-30,26172,,143057136
2021-12-31,26172,,142433534
