period,cik,class,shares_outstanding
2017-09-30,277948,,893936016
2017-12-31,277948,,888923755
2018-03-31,277948,,875554944
2018-06-30,277948,,858992348
2018-09-30,277948,,844576776
2018-12-31,277948,,823120446
2019-03-31,277948,,809273271
2019-06-30,277948,,798296553
2019-09-30,277948,,782508711
2019-12-31,277948,,776039803
2020-03-31,277948,,765605221
2020-06-30,277948,,765057091
2020-09-30,277948,,764777975
2020-12-31,277948,,763095601
2021-03-31,277948,,757486738
2021-06-30,277948,,2238044308
2021-09-30,277948,,2218380285
2021-12-31,277948,,2199787874
