period,cik,class,shares_outstanding
2017-09-30,29534,,272653502
2017-12-31,29534,,270784133
2018-03-31,29534,,268504620
2018-06-30,29534,,266779387
2018-09-30,29534,,264560905
2018-12-31,29534,,261949461
2019-03-31,29534,,259304593
2019-06-30,29534,,257826517
2019-09-30,29534,,256136440
2019-12-31,29534,,253807602
2020-03-31,29534,,251884873
2020-06-30,29534,,250582294
2020-09-30,29534,,247428810
2020-12-31,29534,,243197955
2021-03-31,29534,,238477713
2021-06-30,29534,,234964659
2021-09-30,29534,,232655640
2021-12-31,29534,,230787488
