period,cik,class,shares_outstanding
2017-09-30,2969,,218446384
2017-12-31,2969,,218934041
2018-03-31,2969,,219190826
2018-06-30,2969,,219271629
2018-09-30,2969,,219465620
2018-12-31,2969,,219629570
2019-03-31,2969,,220126990
2019-06-30,2969,,220352693
2019-09-30,2969,,220413427
2019-12-31,2969,,220674472
2020-03-31,2969,,220852711
2020-06-30,2969,,220893939
2020-09-30,2969,,220992194
2020-12-31,2969,,221272786
2021-03-31,2969,,221313842
2021-06-30,2969,,221364106
2021-09-30,2969,,221435478
2021-12-31,2969,,221713173
