period,cik,class,shares_outstanding
2017-09-30,30625,,130635758
2017-12-31,30625,,130726512
2018-03-31,30625,,130816984
2018-06-30,30625,,130845636
2018-09-30,30625,,130855376
2018-12-31,30625,,130928449
2019-03-31,30625,,131082878
2019-06-30,30625,,131161387
2019-09-30,30625,,130946802
2019-12-31,30625,,130884667
2020-03-31,30625,,130445649
2020-06-30,30625,,130149829
2020-09-30,30625,,130226252
2020-12-31,30625,,130270057
