period,cik,class,shares_outstanding
2017-09-30,310158,,2725451619
2017-12-31,310158,,2706015313
2018-03-31,310158,,2692354288
2018-06-30,310158,,2670230906
2018-09-30,310158,,2620949999
2018-12-31,310158,,2587883331
2019-03-31,310158,,2576934891
2019-06-30,310158,,2565338040
2019-09-30,310158,,2550989533
2019-12-31,310158,,2539648023
2020-03-31,310158,,2528292242
2020-06-30,310158,,2527453286
2020-09-30,310158,,2529758483
2020-12-31,310158,,2530217848
2021-03-31,310158,,2531451357
2021-06-30,310158,,2531612493
2021-09-30,310158,,2527832896
2021-12-31,310158,,2527111112
