period,cik,class,shares_outstanding
2017-09-30,354190,,180792097
2017-12-31,354190,,181262878
2018-03-31,354190,,181977977
2018-06-30,354190,,182606442
2018-09-30,354190,,183640695
2018-12-31,354190,,183953853
2019-03-31,354190,,185231796
2019-06-30,354190,,186061010
2019-09-30,354190,,186518076
2019-12-31,354190,,187798479
2020-03-31,354190,,186460653137450
2020-06-30,354190,,191448692307692
2020-09-30,354190,,2081375014152
2020-12-31,354190,,193371089
2021-03-31,354190,,195850610
2021-06-30,354190,,206630626
2021-09-30,354190,,207272260
2021-12-31,354190,,208213154
