period,cik,class,shares_outstanding
2017-09-30,38777,,555098100
2017-12-31,38777,,552333398
2018-03-31,38777,,542881593
2018-06-30,38777,,530059888
2018-09-30,38777,,517433020
2018-12-31,38777,,510534572
2019-03-31,38777,,507995781
2019-06-30,38777,,504639872
2019-09-30,38777,,499861123
2019-12-31,38777,,497222535
2020-03-31,38777,,495721397
2020-06-30,38777,,495344172
2020-09-30,38777,,501694345
2020-12-31,38777,,505151702
2021-03-31,38777,,504655321
2021-06-30,38777,,503306030
2021-09-30,38777,,502148127
2021-12-31,38777,,502024834
