period,cik,class,shares_outstanding
2017-09-30,4447,,317754998
2017-12-31,4447,,315082967
2018-03-31,4447,,308132862
2018-06-30,4447,,299780142
2018-09-30,4447,,296290473
2018-12-31,4447,,301270066
2019-03-31,4447,,304259690
2019-06-30,4447,,304478394
2019-09-30,4447,,304703782
2019-12-31,4447,,305082332
2020-03-31,4447,,307125944
2020-06-30,4447,,307144576
2020-09-30,4447,,307078152
2020-12-31,4447,,307010194
2021-03-31,4447,,308412199
2021-06-30,4447,,309659367
2021-09-30,4447,,309726307
2021-12-31,4447,,309740676
