period,cik,class,shares_outstanding
2017-09-30,47111,,150460544
2017-12-31,47111,,149947578
2018-03-31,47111,,149033465
2018-06-30,47111,,148682877
2018-09-30,47111,,149084643
2018-12-31,47111,,148401577
2019-03-31,47111,,148101374
2019-06-30,47111,,148802407
