period,cik,class,shares_outstanding
2019-09-30,47111,,148444890
2019-12-31,47111,,148202231
2020-03-31,47111,,147607274
2020-06-30,47111,,147406169
2020-09-30,47111,,147494000
2020-12-31,47111,,146961579
2021-03-31,47111,,146440649
2021-06-30,47111,,145678138
2021-09-30,47111,,145399003
2021-12-31,47111,,145530383
2017-09-30,47111,b,60619777
2017-12-31,47111,b,60619777
2018-03-31,47111,b,60619777
2018-06-30,47111,b,60619777
2018-09-30,47111,b,60619777
2018-12-31,47111,b,60616146
2019-03-31,47111,b,60613777
2019-06-30,47111,b,60613777
2019-09-30,47111,b,60613777
2019-12-31,47111,b,61227222
2020-03-31,47111,b,60899491
2020-06-30,47111,b,60613777
2020-09-30,47111,b,60613777
2020-12-31,47111,b,60613777
2021-03-31,47111,b,60613777
2021-06-30,47111,b,60613777
2021-09-30,47111,b,60613777
2021-12-31,47111,b,60024033
