period,cik,class,shares_outstanding
2017-09-30,48465,,528267398
2017-12-31,48465,,529569147
2018-03-31,48465,,529812079
2018-06-30,48465,,531252904
2018-09-30,48465,,533566219
2018-12-31,48465,,534944102
2019-03-31,48465,,535132442
2019-06-30,48465,,533881747
2019-09-30,48465,,534211188
2019-12-31,48465,,535749872
2020-03-31,48465,,538146732
2020-06-30,48465,,539155970
2020-09-30,48465,,539710228
2020-12-31,48465,,539996513
2021-03-31,48465,,540783410
2021-06-30,48465,,542233791
2021-09-30,48465,,542560999
2021-12-31,48465,,543236888
2017-09-30,48465,nonvoting,0
2017-12-31,48465,nonvoting,0
2018-03-31,48465,nonvoting,0
2018-06-30,48465,nonvoting,0
2018-09-30,48465,nonvoting,0
2018-12-31,48465,nonvoting,0
2019-03-31,48465,nonvoting,0
2019-06-30,48465,nonvoting,0
2019-09-30,48465,nonvoting,0
2019-12-31,48465,nonvoting,0
2020-03-31,48465,nonvoting,0
2020-06-30,48465,nonvoting,0
2020-09-30,48465,nonvoting,0
2020-12-31,48465,nonvoting,0
2021-03-31,48465,nonvoting,0
2021-06-30,48465,nonvoting,0
2021-09-30,48465,nonvoting,0
2021-12-31,48465,nonvoting,0
