period,cik,class,shares_outstanding
2017-09-30,50863,,4680208791
2017-12-31,50863,,4671600000
2018-03-31,50863,,4660153846
2018-06-30,50863,,4611538461
2018-09-30,50863,,4564000000
2018-12-31,50863,,4512201680
2019-03-31,50863,,4477000000
2019-06-30,50863,,4430000000
2019-09-30,50863,,4349342342
2019-12-31,50863,,4288837837
2020-03-31,50863,,4234417582
2020-06-30,50863,,4249593406
2020-09-30,50863,,4097054054
2020-12-31,50863,,4068045045
2021-03-31,50863,,4038626373
2021-06-30,50863,,4057329670
2021-09-30,50863,,4067169491
2021-12-31,50863,,4071067796
