period,cik,class,shares_outstanding
2017-09-30,51434,,412924174
2017-12-31,51434,,412935251
2018-03-31,51434,,413631100
2018-06-30,51434,,410482192
2018-09-30,51434,,406170657
2018-12-31,51434,,402247194
2019-03-31,51434,,398453374
2019-06-30,51434,,394170816
2019-09-30,51434,,392322154
2019-12-31,51434,,392121311
2020-03-31,51434,,392713932
2020-06-30,51434,,393078691
2020-09-30,51434,,393094777
2020-12-31,51434,,393116803
2021-03-31,51434,,392031921
2021-06-30,51434,,391073208
2021-09-30,51434,,388136188
2021-12-31,51434,,376517937
