period,cik,class,shares_outstanding
2017-09-30,52988,,120406848
2017-12-31,52988,,134602950
2018-03-31,52988,,141755602
2018-06-30,52988,,141869573
2018-09-30,52988,,142117313
2018-12-31,52988,,140573408
2019-03-31,52988,,137488003
2019-06-30,52988,,135824086
2019-09-30,52988,,133907135
2019-12-31,52988,,132979052
2020-03-31,52988,,131009580
2020-06-30,52988,,130178971
2020-09-30,52988,,129853097
2020-12-31,52988,,129908186
2021-03-31,52988,,130171368
2021-06-30,52988,,130283681
2021-09-30,52988,,129499987
2021-12-31,52988,,129115756
