period,cik,class,shares_outstanding
2017-09-30,58492,,131894495
2017-12-31,58492,,132067298
2018-03-31,58492,,131726354
2018-06-30,58492,,130517380
2018-09-30,58492,,130328481
2018-12-31,58492,,130768898
2019-03-31,58492,,131189252
2019-06-30,58492,,131402964
2019-09-30,58492,,131564885
2019-12-31,58492,,131948772
2020-03-31,58492,,132226883
2020-06-30,58492,,132354638
2020-09-30,58492,,132480691
2020-12-31,58492,,132788406
2021-03-31,58492,,133134583
2021-06-30,58492,,133278539
2021-09-30,58492,,133353372
