period,cik,class,shares_outstanding
2018-12-31,731802,,114826451
2019-03-31,731802,,116955626
2019-06-30,731802,,117769585
2019-09-30,731802,,118900396
2019-12-31,731802,,121178773
2020-03-31,731802,,122295619
2020-06-30,731802,,122988047
2020-09-30,731802,,124906700
2020-12-31,731802,,127349538
2021-03-31,731802,,129816463
2021-06-30,731802,,130750319
2021-09-30,731802,,131808519
2021-12-31,731802,,134242908
