period,cik,class,shares_outstanding
2018-09-30,743316,,277311236
2018-12-31,743316,,274342807
2019-03-31,743316,,272645213
2019-06-30,743316,,271684351
2019-09-30,743316,,270765424
2019-12-31,743316,,269626865
2020-03-31,743316,,267173057
2020-06-30,743316,,266669706
2020-09-30,743316,,267154289
2020-12-31,743316,,267919110
2021-03-31,743316,,268304045
2021-06-30,743316,,268492895
