period,cik,class,shares_outstanding
2017-09-30,766421,,123212050
2017-12-31,766421,,123013390
2018-03-31,766421,,123167491
2018-06-30,766421,,123184555
2018-09-30,766421,,123245997
2018-12-31,766421,,123184991
2019-03-31,766421,,123321998
2019-06-30,766421,,123326418
2019-09-30,766421,,123207800
2019-12-31,766421,,123003589
2020-03-31,766421,,122698225
2020-06-30,766421,,123272996
2020-09-30,766421,,123655585
2020-12-31,766421,,124032807
2021-03-31,766421,,124392834
2021-06-30,766421,,124976910
2021-09-30,766421,,125284971
2021-12-31,766421,,125707572
