period,cik,class,shares_outstanding
2017-09-30,797468,,765238039
2017-12-31,797468,,765173839
2018-03-31,797468,,765759688
2018-06-30,797468,,764732977
2018-09-30,797468,,755131324
2018-12-31,797468,,750972002
2019-03-31,797468,,747906140
2019-06-30,797468,,748293168
2019-09-30,797468,,891527730
2019-12-31,797468,,894728703
2020-03-31,797468,,899713852
2020-06-30,797468,,922041589
2020-09-30,797468,,931191997
2020-12-31,797468,,931464903
2021-03-31,797468,,933387092
2021-06-30,797468,,933731165
2021-09-30,797468,,933978303
2021-12-31,797468,,934042393
