period,cik,class,shares_outstanding
2019-09-30,877212,a,53968611
2019-12-31,877212,a,53978764
2020-03-31,877212,a,53353589
2020-06-30,877212,a,53279820
2020-09-30,877212,a,53323102
2020-12-31,877212,a,53413046
2021-03-31,877212,a,53496282
2021-06-30,877212,a,53436286
2021-09-30,877212,a,53430060
2021-12-31,877212,a,53206352
