period,cik,class,shares_outstanding
2017-09-30,900075,,230799017
2017-12-31,900075,,231554312
2018-03-31,900075,,232098701
2018-06-30,900075,,232742466
2018-09-30,900075,,233917817
2018-12-31,900075,,231972552
2019-03-31,900075,,228518309
2019-06-30,900075,,229935771
2019-09-30,900075,,232257431
2019-12-31,900075,,232949501
2020-03-31,900075,,234098563
2020-06-30,900075,,235110389
2020-09-30,900075,,235983626
2020-12-31,900075,,236212326
2021-03-31,900075,,236425185
2021-06-30,900075,,236744218
2021-09-30,900075,,237109941
2021-12-31,900075,,237315631
