period,cik,class,shares_outstanding
2017-09-30,906107,,367432007
2017-12-31,906107,,367876091
2018-03-31,906107,,368196058
2018-06-30,906107,,368260972
2018-09-30,906107,,368393551
2018-12-31,906107,,369307165
2019-03-31,906107,,370283488
2019-06-30,906107,,370754311
2019-09-30,906107,,371211070
2019-12-31,906107,,371722147
2020-03-31,906107,,372065587
2020-06-30,906107,,372182597
2020-09-30,906107,,372239984
2020-12-31,906107,,372496191
2021-03-31,906107,,373508962
2021-06-30,906107,,374334075
2021-09-30,906107,,374874965
2021-12-31,906107,,375571314
