period,cik,class,shares_outstanding
2017-12-31,920760,a,203952337
2018-03-31,920760,a,289218071
2018-06-30,920760,a,291982856
2018-09-30,920760,a,291094077
2018-12-31,920760,a,286504399
2019-03-31,920760,a,285095721
2019-06-30,920760,a,282977709
2019-09-30,920760,a,279462255
2019-12-31,920760,a,278134590
2020-03-31,920760,a,274617833
2020-06-30,920760,a,274775127
2020-09-30,920760,a,275102475
2020-12-31,920760,a,275060371
2021-03-31,920760,a,275412972
2021-06-30,920760,a,273798769
2021-09-30,920760,a,269361445
2021-12-31,920760,a,261459880
2017-12-31,920760,b,35956637
2018-03-31,920760,b,37703646
2018-06-30,920760,b,37750042
2018-09-30,920760,b,37744148
2018-12-31,920760,b,37743369
2019-03-31,920760,b,37743404
2019-06-30,920760,b,37741594
2019-09-30,920760,b,37738348
2019-12-31,920760,b,37738353
2020-03-31,920760,b,37623245
2020-06-30,920760,b,37622547
2020-09-30,920760,b,37621162
2020-12-31,920760,b,37621152
2021-03-31,920760,b,37621152
2021-06-30,920760,b,37621152
2021-09-30,920760,b,37593729
2021-12-31,920760,b,37506733
