period,cik,class,shares_outstanding
2017-09-30,922864,a,157023105
2017-12-31,922864,a,157178077
2018-03-31,922864,a,157339201
2018-06-30,922864,a,157350923
2018-09-30,922864,a,156270212
2018-12-31,922864,a,151816131
2019-03-31,922864,a,148801611
2019-06-30,922864,a,148861452
2019-09-30,922864,a,148884496
2019-12-31,922864,a,148908768
2020-03-31,922864,a,148896831
2020-06-30,922864,a,148864711
2020-09-30,922864,a,148865653
