period,cik,class,shares_outstanding
2017-09-30,927628,,484470611
2017-12-31,927628,,485750423
2018-03-31,927628,,486382917
2018-06-30,927628,,478556322
2018-09-30,927628,,473708332
2018-12-31,927628,,469383327
2019-03-31,927628,,469567431
2019-06-30,927628,,470324947
2019-09-30,927628,,465771117
2019-12-31,927628,,459359677
2020-03-31,927628,,455340293
2020-06-30,927628,,456288045
2020-09-30,927628,,457384610
2020-12-31,927628,,458758132
2021-03-31,927628,,454187874
2021-06-30,927628,,446201893
2021-09-30,927628,,430702647
2021-12-31,927628,,417732914
