period,cik,class,shares_outstanding
2017-09-30,936468,,286687268
2017-12-31,936468,,285824071
2018-03-31,936468,,285488361
2018-06-30,936468,,284762934
2018-09-30,936468,,284429314
2018-12-31,936468,,282976568
2019-03-31,936468,,282539174
2019-06-30,936468,,282399053
2019-09-30,936468,,282127741
2019-12-31,936468,,281978219
2020-03-31,936468,,280786443
2020-06-30,936468,,279694310
2020-09-30,936468,,279742164
2020-12-31,936468,,280029160
2021-03-31,936468,,278373039
2021-06-30,936468,,277141410
2021-09-30,936468,,276044386
2021-12-31,936468,,273087257
