period,cik,class,shares_outstanding
2017-09-30,940944,,123651812
2017-12-31,940944,,123576432
2018-03-31,940944,,123738335
2018-06-30,940944,,123711453
2018-09-30,940944,,124011327
2018-12-31,940944,,123415314
2019-03-31,940944,,122997608
2019-06-30,940944,,122932436
2019-09-30,940944,,122415758
2019-12-31,940944,,121404458
2020-03-31,940944,,122494308
2020-06-30,940944,,129976771
2020-09-30,940944,,130219663
2020-12-31,940944,,130413918
2021-03-31,940944,,130826894
2021-06-30,940944,,130491134
2021-09-30,940944,,129467875
