Symbol,Name,CIK,Sector,Class,CUSIP,CUSIP Updated To,DESCRIPTION
MMM,3M,66740,Industrials,,88579Y101,2022-03-14,3M COMPANY;COM USD0.01
AOS,A. O. Smith,91142,Industrials,,831865209,2022-03-11,SMITH A O CORP
ABT,Abbott,1800,Health Care,,002824100,2022-03-14,ABBOTT LABS;COM NPV
ABBV,AbbVie,1551152,Health Care,,00287Y109,2022-03-14,ABBVIE INC COM STK (DE)
ABMD,Abiomed,815094,Health Care,,003654100,2022-03-11,ABIOMED INC
ACN,Accenture,1467373,Information Technology,A,G1151C101,2022-03-14,ACCENTURE PLC CL-A ORDINARY SH
ATVI,Activision Blizzard,718877,Communication Services,,00507V109,2022-03-14,ACTIVISION BLIZZARD INC COM ST
ADM,ADM,7084,Consumer Staples,,039483102,2022-03-11,ARCHER DANIELS MIDLAND CO
ADBE,Adobe,796343,Information Technology,,00724F101,2022-03-14,ADOBE INC COM (DE)
ADP,ADP,8670,Information Technology,,053015103,2022-03-11,AUTOMATIC DATA PROCESSING
AAP,Advance Auto Parts,1158449,Consumer Discretionary,,00751Y106,2022-03-14,ADVANCE AUTO PARTS INC
AES,AES,874761,Utilities,,00130H105,2022-03-14,THE AES CORPORATION
AFL,Aflac,4977,Financials,,001055102,2022-03-09,AFLAC INC
A,Agilent Technologies,1090872,Health Care,,00846U101,2022-03-14,"AGILENT TECHNOLOGIES, INC"
AIG,AIG,5272,Financials,,026874784,2022-03-11,AMERICAN INTL GROUP INC COM ST
APD,Air Products,2969,Materials,,009158106,2022-03-14,AIR PROD&CHEM INC
AKAM,Akamai,1086222,Information Technology,,00971T101,2022-03-14,AKAMAI TECHNOLOGIES INC
ALK,Alaska Air Group,766421,Industrials,,011659109,2022-03-14,ALASKA AIR GROUP INC
ALB,Albemarle,915913,Materials,,012653101,2022-03-14,ALBEMARLE CORP
ARE,Alexandria,1035443,Real Estate,,015271109,2022-03-14,ALEXANDRIA REAL EST EQ INC
ALGN,Align,1097149,Health Care,,016255101,2022-03-14,ALIGN TECHNOLOGY INC
ALLE,Allegion,1579241,Industrials,,G0176J109,2022-03-11,ALLEGION PUB LTD CO (IRL)
LNT,Alliant Energy,352541,Utilities,,018802108,2022-03-11,ALLIANT ENERGY CORPORATION
ALL,Allstate,899051,Financials,,020002101,2022-03-14,ALLSTATE CORP (THE)
GOOGL,Alphabet,1652044,Communication Services,A,02079K305,2022-03-14,ALPHABET INC CAP STK CL A
GOOG,Alphabet,1652044,Communication Services,C,02079K107,2022-03-11,ALPHABET INC CAP STK CL C
MO,Altria,764180,Consumer Staples,,02209S103,2022-03-11,"ALTRIA GROUP,INC."
AMZN,Amazon,1018724,Consumer Discretionary,,023135106,2022-03-11,AMAZON COM INC;COM USD0.01
AMCR,Amcor,1748790,Materials,,G0250X107,2022-03-14,AMCOR PLC ORD USD0.01 (JEY)
AMD,AMD,2488,Information Technology,,007903107,2022-03-14,ADVANCED MICRO DEVICES
AEE,Ameren,1002910,Utilities,,023608102,2022-03-07,AMEREN CORP
AAL,American Airlines Group,6201,Industrials,,02376R102,2022-03-14,AMERICAN AIRLINES GROUP INC CO
AEP,American Electric Power,4904,Utilities,,025537101,2022-03-14,AMERICAN ELECTRIC POWER INC
AXP,American Express,4962,Financials,,025816109,2022-03-11,AMERICAN EXPRESS COMPANY
AMT,American Tower,1053507,Real Estate,,03027X100,2022-03-10,AMERICAN TOWER CORP REIT (DE) 
AWK,American Water,1410636,Utilities,,030420103,2022-03-11,AMERICAN WATER WORKS COMPANY I
AMP,Ameriprise Financial,820027,Financials,,03076C106,2022-03-01,"AMERIPRISE FINANCIAL, INC. COM"
ABC,AmerisourceBergen,1140859,Health Care,,03073E105,2022-03-14,AMERISOURCEBERGEN CORP
AME,Ametek,1037868,Industrials,,031100100,2022-03-09,AMETEK INC NEW
AMGN,Amgen,318154,Health Care,,031162100,2022-03-11,AMGEN INC
APH,Amphenol,820313,Information Technology,A,032095101,2022-03-08,AMPHENOL CORP (NEW) CL-A
ADI,Analog Devices,6281,Information Technology,,032654105,2022-02-25,ANALOG DEVICES INC
ANSS,Ansys,1013462,Information Technology,,03662Q105,2022-03-11,ANSYS INC
ANTM,Anthem,1156039,Health Care,,036752103,2022-03-14,ANTHEM INC COM STK (IN)
AON,Aon,315293,Financials,A,G0403H108,2022-03-14,AON PLC ORD SHS CL A NEW (IRL)
APA,APA Corporation,1841666,Energy,,03743Q108,2022-03-14,APA CORP
AAPL,Apple,320193,Information Technology,,037833100,2022-03-10,APPLE INC;COM NPV
AMAT,Applied Materials,6951,Information Technology,,038222105,2022-03-14,APPLIED MATERIALS INC
APTV,Aptiv,1521332,Consumer Discretionary,,G6095L109,2022-03-11,APTIV PLC SHS (JEY)
ANET,Arista,1596532,Information Technology,,040413106,2022-03-08,ARISTA NETWORKS INC COM
AIZ,Assurant,1267238,Financials,,04621X108,2022-03-14,ASSURANT INC
T,AT&T,732717,Communication Services,,00206R102,2022-03-14,AT&T INC. COM
ATO,Atmos Energy,731802,Utilities,,049560105,2022-03-14,ATMOS ENERGY CORP
ADSK,Autodesk,769397,Information Technology,,052769106,2022-03-14,AUTODESK INC (DE)
AZO,AutoZone,866787,Consumer Discretionary,,053332102,2022-03-11,AUTOZONE INC
AVB,AvalonBay Communities,915912,Real Estate,,053484101,2022-03-14,AVALONBAY COMMUNITIES INC
AVY,Avery Dennison,8818,Materials,,053611109,2022-03-11,AVERY DENNISON CORP
BKR,Baker Hughes,1701605,Energy,A,05722G100,2022-03-08,BAKER HUGHES COMPANY
BLL,Ball,9389,Materials,,058498106,2022-03-14,BALL CORP
BAC,Bank of America,70858,Financials,,060505104,2022-03-14,BANK OF AMERICA CORP
BBWI,Bath & Body Works,701985,Consumer Discretionary,,070830104,2022-03-14,BATH & BODY WKS INC COM STK (D
BAX,Baxter,10456,Health Care,,071813109,2022-03-14,BAXTER INTL INC;COM USD1
BDX,Becton Dickinson,10795,Health Care,,075887109,2022-03-11,BECTON DICKINSON & CO
WRB,Berkley,11544,Financials,,084423102,2022-03-09,BERKLEY (W R) CORP
BRK.B,Berkshire Hathaway,1067983,Financials,B,084670702,2022-03-14,BERKSHIRE HATHWY INC(HLDG CO)B
BBY,Best Buy,764478,Consumer Discretionary,,086516101,2022-03-09,BEST BUY CO INC
BIO,Bio-Rad,12208,Health Care,A,090572207,2022-03-14,BIO-RAD LABS CL A
TECH,Bio-Techne,842023,Health Care,,09073M104,2022-03-14,BIO-TECHNE CORP COM
BIIB,Biogen,875045,Health Care,,09062X103,2022-03-11,BIOGEN INC
BLK,BlackRock,1364742,Financials,,09247X101,2022-03-14,BLACKROCK INC
BK,BNY Mellon,1390777,Financials,,064058100,2022-03-02,BANK OF NEW YORK MELLON CORP
BA,Boeing,12927,Industrials,,097023105,2022-03-14,BOEING CO;COM USD5
BKNG,Booking Holdings,1075531,Consumer Discretionary,,09857L108,2022-03-01,BOOKING HLDGS INC COM
BWA,BorgWarner,908255,Consumer Discretionary,,099724106,2022-03-11,BORGWARNER INC
BXP,Boston Properties,1037540,Real Estate,,101121101,2022-03-14,BOSTON PROPERTIES INC.
BSX,Boston Scientific,885725,Health Care,,101137107,2022-03-01,BOSTON SCIENTIFIC CORP
BMY,Bristol Myers Squibb,14272,Health Care,,110122108,2022-03-14,BRISTOL MYERS SQUIBB COMPANY
AVGO,Broadcom,1730168,Information Technology,,11135F101,2022-03-11,BROADCOM INC COM (DE)
BR,Broadridge,1383312,Information Technology,,11133T103,2022-03-14,BROADRIDGE FINL SOLUTIONS INC 
BRO,Brown & Brown,79282,Financials,,115236101,2022-03-14,"BROWN & BROWN,INC"
BF.B,Brown–Forman,14693,Consumer Staples,B,115637209,2022-03-14,BROWN-FORMAN CORP CL-B
CHRW,C.H. Robinson,1043277,Industrials,,12541W209,2022-03-14,C.H. ROBINSON WORLDWIDE INC NE
CDNS,Cadence,813672,Information Technology,,127387108,2022-03-14,CADENCE DESIGN SYS INC
CZR,Caesars Entertainment,1590895,Consumer Discretionary,,12769G100,2022-03-10,CAESARS ENTMT INC NEW COM
CPB,Campbell's,16732,Consumer Staples,,134429109,2022-03-14,CAMPBELL SOUP CO CAPITAL
COF,Capital One,927628,Financials,,14040H105,2022-03-11,CAPITAL ONE FINANCIAL CORP
CAH,Cardinal Health,721371,Health Care,,14149Y108,2022-03-14,CARDINAL HEALTH INC
KMX,CarMax,1170010,Consumer Discretionary,,143130102,2022-03-14,"CARMAX, INC."
CCL,Carnival,815097,Consumer Discretionary,,143658300,2022-03-14,CARNIVAL CORPORATION (PAIRED S
CARR,Carrier,1783180,Industrials,,14448C104,2022-03-14,CARRIER GLOBAL CORP COM
CTLT,Catalent,1596783,Health Care,,148806102,2022-03-14,CATALENT INC COM STK (DE)
CAT,Caterpillar,18230,Industrials,,149123101,2022-03-14,CATERPILLAR INC;COM USD1
CBOE,Cboe,1374310,Financials,,12503M108,2022-03-04,CBOE GLOBAL MARKETS INC COM
CBRE,CBRE,1138118,Real Estate,A,12504L109,2022-03-07,CBRE GROUP INC CL A
CDW,CDW,1402057,Information Technology,,12514G108,2022-03-11,CDW COPR COM STK (DE)
CE,Celanese,1306830,Materials,,150870103,2022-03-14,CELANESE CORPORATION COM STK
CNC,Centene,1071739,Health Care,,15135B101,2022-03-14,CENTENE CORP DEL
CNP,CenterPoint Energy,1130310,Utilities,,15189T107,2022-03-11,"CENTERPOINT ENERGY, (HDG CO.) "
CDAY,Ceridian,1725057,Information Technology,,15677J108,2022-03-14,CERIDIAN HCM HLDG INC COM
CERN,Cerner,804753,Health Care,,156782104,2022-02-11,CERNER CORP
CF,CF Industries,1324404,Materials,,125269100,2022-03-14,"CF INDUSTRIES HOLDINGS, INC."
CRL,Charles River,1100682,Health Care,,159864107,2022-03-04,CHARLES RIVER LABS INT'L INC
SCHW,Charles Schwab,316709,Financials,,808513105,2022-03-04,SCHWAB CHARLES CORP
CHTR,Charter Communications,1091667,Communication Services,A,16119P108,2022-03-14,CHARTER COMMUNICATIONS INC NEW
CVX,Chevron,93410,Energy,,166764100,2022-03-14,CHEVRON CORPORATION
CMG,Chipotle Mexican Grill,1058090,Consumer Discretionary,,169656105,2022-03-14,CHIPOLTE MEXICAN GRILL INC COM
CB,Chubb,896159,Financials,,H1467J104,2022-03-14,CHUBB LTD COM
CHD,Church & Dwight,313927,Consumer Staples,,171340102,2022-03-10,CHURCH & DWIGHT CO INC
CI,Cigna,1739940,Health Care,,125523100,2022-03-11,CIGNA CORP NEW COM STK (DE)
CINF,Cincinnati Financial,20286,Financials,,172062101,2022-02-28,CINCINNATI FINANCIAL CORP
CTAS,Cintas,723254,Industrials,,172908105,2022-03-11,CINTAS CORP
CSCO,Cisco,858877,Information Technology,,17275R102,2022-03-14,CISCO SYSTEMS;COM USD0.001 (DE
C,Citigroup,831001,Financials,,172967424,2022-03-11,CITIGROUP
CFG,Citizens,759944,Financials,,174610105,2022-03-11,CITIZENS FINL GROUP INC COM ST
CTXS,Citrix,877890,Information Technology,,177376100,2022-03-11,CITRIX SYSTEMS INC
CLX,Clorox,21076,Consumer Staples,,189054109,2022-03-14,CLOROX CO
CME,CME Group,1156375,Financials,A,12572Q105,2022-03-10,"CME GROUP, INC"
CMS,CMS Energy,811156,Utilities,,125896100,2022-03-14,CMS ENERGY CORP
KO,Coca-Cola,21344,Consumer Staples,,191216100,2022-03-11,COCA-COLA CO
CTSH,Cognizant,1058290,Information Technology,A,192446102,2022-03-14,COGNIZANT TECH SOLUTIONS CORP 
CL,Colgate-Palmolive,21665,Consumer Staples,,194162103,2022-03-08,COLGATE-PALMOLIVE;COM USD1
CMCSA,Comcast,1166691,Communication Services,A,20030N101,2022-03-10,COMCAST CORP CL A (NEW)
CMA,Comerica,28412,Financials,,200340107,2022-03-14,COMERICA INC
ED,Con Edison,1047862,Utilities,,209115104,2022-03-14,CONSOLIDATED ED INC(HOLDING CO
CAG,Conagra Brands,23217,Consumer Staples,,205887102,2022-03-14,CONAGRA BRANDS INC
COP,ConocoPhillips,1163165,Energy,,20825C104,2022-03-11,CONOCOPHILLIPS;COM USD0.01
STZ,Constellation Brands,16918,Consumer Staples,A,21036P108,2022-03-10,CONSTELLATION BRANDS CL-A
CEG,Constellation Energy,1868275,Utilities,,21037T109,2022-03-14,CONSTELLATION ENERGY CORPORATI
COO,CooperCompanies,711404,Health Care,,216648402,2022-03-09,COOPER COS INC (THE) NEW
CPRT,Copart,900075,Industrials,,217204106,2022-03-04,COPART INC (DE)
GLW,Corning,24741,Information Technology,,219350105,2022-03-11,CORNING INCORPORATED
CTVA,Corteva,1755672,Materials,,22052L104,2022-03-10,CORTEVA INC COM
COST,Costco,909832,Consumer Staples,,22160K105,2022-03-11,COSTCO WHOLESALE CORP-NEW
CTRA,Coterra,858470,Energy,,127097103,2022-03-14,COTERRA ENERGY INC COM (DE)
CCI,Crown Castle,1051470,Real Estate,,22822V101,2022-03-14,CROWN CASTLE INTL CORP (REIT) 
CSX,CSX,277948,Industrials,,126408103,2022-03-11,CSX CORP
CMI,Cummins,26172,Industrials,,231021106,2022-03-14,CUMMINS INC
CVS,CVS Health,64803,Health Care,,126650100,2022-03-11,CVS HEALTH CORPORATION (DE)
DHI,D.R. Horton,882184,Consumer Discretionary,,23331A109,2022-03-14,DR HORTON INC
DHR,Danaher,313616,Health Care,,235851102,2022-03-14,DANAHER CORP
DRI,Darden,940944,Consumer Discretionary,,237194105,2022-03-14,DARDEN RESTAURANTS INC
DVA,DaVita,927066,Health Care,,23918K108,2022-03-11,DAVITA INC COM STK
DE,Deere & Co.,315189,Industrials,,244199105,2022-03-14,DEERE & CO
DAL,Delta Air Lines,27904,Industrials,,247361702,2022-03-14,DELTA AIR LINES INC NEW (DE)
XRAY,Dentsply Sirona,818479,Health Care,,24906P109,2022-03-14,DENTSPLY SIRONA INC
DVN,Devon,1090012,Energy,,25179M103,2022-03-14,DEVON ENERGY CORP (NEW)
DXCM,DexCom,1093557,Health Care,,252131107,2022-03-14,"DEXCOM, INC"
FANG,Diamondback,1539838,Energy,,25278X109,2022-03-09,DIAMONDBACK ENERGY INC COM
DLR,Digital Realty,1297996,Real Estate,,253868103,2022-03-09,DIGITAL REALTY TRUST
DFS,Discover,1393612,Financials,,254709108,2022-03-10,DISCOVER FINANCIAL SERVICES
DISCA,Discovery,1437107,Communication Services,A,25470F104,2022-03-14,DISCOVERY INC SER A COM STK (D
DISCK,Discovery,1437107,Communication Services,C,25470F302,2022-03-08,DISCOVERY INC SER C COM STK (D
DISH,Dish,1001082,Communication Services,A,25470M109,2022-03-11,DISH NETWORK CORP CLA A
DIS,Disney,1744489,Communication Services,,254687106,2022-03-09,WALT DISNEY CO-DISNEY COMMON
DG,Dollar General,29534,Consumer Discretionary,,256677105,2022-03-11,DOLLAR GEN CORP NEW COM STK (T
DLTR,Dollar Tree,935703,Consumer Discretionary,,256746108,2022-03-14,DOLLAR TREE INC COM STK HOLDIN
D,Dominion Energy,715957,Utilities,,25746U109,2022-03-08,DOMINION ENERGY INC COM (VA)
DPZ,Domino's,1286681,Consumer Discretionary,,25754A201,2022-03-11,DOMINO'S PIZZA INC COM STK
DOV,Dover,29905,Industrials,,260003108,2022-03-14,DOVER CORP
DOW,Dow,1751788,Materials,,260557103,2022-03-10,DOW INC COM
DTE,DTE,936340,Utilities,,233331107,2022-03-14,DTE ENERGY COMPANY (HLDG CO)
DUK,Duke Energy,1326160,Utilities,,26441C204,2022-03-02,DUKE ENERGY CORPORATION NEW CO
DRE,Duke Realty,783280,Real Estate,,264411505,2022-03-14,DUKE REALTY CORP
DD,DuPont,1666700,Materials,,26614N102,2022-03-14,DUPONT DE NEMOURS INC COM
DXC,DXC Technology,1688568,Information Technology,,23355L106,2022-03-14,DXC TECHNOLOGY COMPANY COM
EMN,Eastman,915389,Materials,,277432100,2022-03-10,EASTMAN CHEMICAL CO
ETN,Eaton,1551182,Industrials,,G29183103,2022-03-10,EATON CORP PLC (IRL)
EBAY,eBay,1065088,Consumer Discretionary,,278642103,2022-03-09,EBAY INC
ECL,Ecolab,31462,Materials,,278865100,2022-03-14,ECOLAB INC
EIX,Edison International,827052,Utilities,,281020107,2022-03-11,EDISON INTERNATIONAL
EW,Edwards Lifesciences,1099800,Health Care,,28176E108,2022-03-14,EDWARDS LIFESCIENCES CORP
EA,Electronic Arts,712515,Communication Services,,285512109,2022-03-11,ELECTRONIC ARTS INC
EMR,Emerson,32604,Industrials,,291011104,2022-03-11,EMERSON ELECTRIC CO
ENPH,Enphase,1463101,Information Technology,,29355A107,2022-03-14,"ENPHASE ENERGY, INC COM STK"
ETR,Entergy,65984,Utilities,,29364G103,2022-03-14,ENTERGY CORP (NEW)
EOG,EOG Resources,821189,Energy,,26875P101,2022-03-14,"EOG RESOURCES,INC"
EPAM,EPAM,1352010,Information Technology,,29414B104,2022-03-11,EPAM SYS INC COM STK (DE)
EFX,Equifax,33185,Industrials,,294429105,2022-03-14,EQUIFAX INCORPORATED
EQIX,Equinix,1101239,Real Estate,,29444U700,2022-03-09,EQUINIX INC COMMON STOCK REIT 
EQR,Equity Residential,906107,Real Estate,,29476L107,2022-03-14,EQUITY RESIDENTIAL
ESS,Essex,920522,Real Estate,,297178105,2022-03-14,ESSEX PROPERTY TRUST INC
EL,Estée Lauder Companies,1001250,Consumer Staples,A,518439104,2022-03-14,ESTEE LAUDER CO'S INC CL-A
ETSY,Etsy,1370637,Consumer Discretionary,,29786A106,2022-03-10,ETSY INC COM
RE,Everest,1095073,Financials,,G3223R108,2022-03-14,EVEREST RE GP LTD(BERM)HLDG CO
EVRG,Evergy,1711269,Utilities,,30034W106,2022-03-14,EVERGY INC COM
ES,Eversource,72741,Utilities,,30040W108,2022-03-14,EVERSOURCE ENERGY COM SHS
EXC,Exelon,1109357,Utilities,,30161N101,2022-03-14,EXELON CORPORATION
EXPE,Expedia Group,1324424,Consumer Discretionary,,30212P303,2022-03-11,"EXPEDIA GROUP,INC. COM NEW"
EXPD,Expeditors,746515,Industrials,,302130109,2022-03-11,EXPEDITORS INTL OF WASH INC
EXR,Extra Space Storage,1289490,Real Estate,,30225T102,2022-03-14,EXTRA SPACE STORAGE INC
XOM,ExxonMobil,34088,Energy,,30231G102,2022-03-14,EXXON MOBIL CORPORATION
FFIV,F5,1048695,Information Technology,,315616102,2022-03-10,"F5,INC. COMMON STOCK (WA)"
FDS,FactSet,1013237,Financials,,303075105,2022-03-10,FACTSET RESEARCH SYSTEMS INC
FAST,Fastenal,815556,Industrials,,311900104,2022-03-11,FASTENAL CO
FRT,Federal Realty,34903,Real Estate,,313745101,2022-03-14,FEDERAL REALTY INVEST TR SBI
FDX,FedEx,1048911,Industrials,,31428X106,2022-03-14,FEDEX CORPORATION
FITB,Fifth Third Bank,35527,Financials,,316773100,2022-03-10,FIFTH THIRD BANCORP (OHIO)
FRC,First Republic,1132979,Financials,,33616C100,2022-03-14,FIRST REP BK SAN FRANCISCO CAL
FE,FirstEnergy,1031296,Utilities,,337932107,2022-03-14,FIRSTENERGY CORP
FIS,FIS,1136893,Information Technology,,31620M106,2022-03-14,FIDELITY NATIONAL INFORMATION 
FISV,Fiserv,798354,Information Technology,,337738108,2022-03-14,FISERV INC
FLT,Fleetcor,1175454,Information Technology,,339041105,2022-03-14,FLEETCOR TECHNOLOGIES INC COM 
FMC,FMC,37785,Materials,,302491303,2022-03-11,FMC CORP NEW
F,Ford,37996,Consumer Discretionary,,345370860,2022-03-14,FORD MOTOR CO;COM STK USD0.01 
FTNT,Fortinet,1262039,Information Technology,,34959E109,2022-03-14,FORTINET INC COM STK (DE)
FTV,Fortive,1659166,Industrials,,34959J108,2022-03-08,FORTIVE CORP COM (DE)
FBHS,Fortune Brands,1519751,Industrials,,34964C106,2022-03-14,FORTUNE BRANDS HOME & SEC INC 
FOXA,Fox Corporation,1754301,Communication Services,A,35137L105,2022-03-14,FOX CORP CL A (DE)
FOX,Fox Corporation,1754301,Communication Services,B,35137L204,2022-03-14,FOX CORP CL B (DE)
BEN,Franklin Templeton,38777,Financials,,354613101,2022-03-11,FRANKLIN RESOURCES
FCX,Freeport-McMoRan,831259,Materials,,35671D857,2022-03-14,FREEPORT-MCMORAN INC COM STK C
AJG,Gallagher,354190,Financials,,363576109,2022-03-14,GALLAGHER ARTHUR J.& CO
GRMN,Garmin,1121788,Consumer Discretionary,,H2906T109,2022-03-08,GARMIN LTD COM STK (CH)
IT,Gartner,749251,Information Technology,,366651107,2022-03-01,GARTNER INC COM STK
GE,GE,40545,Industrials,,369604301,2022-03-11,GEN ELEC CO COM NEW (NY)
GNRC,Generac,1474735,Industrials,,368736104,2022-03-10,GENERAC HOLDINGS INC DE
GD,General Dynamics,40533,Industrials,,369550108,2022-03-14,GENERAL DYNAMICS CORP
GIS,General Mills,40704,Consumer Staples,,370334104,2022-03-08,GENERAL MILLS INC
GPC,Genuine Parts,40987,Consumer Discretionary,,372460105,2022-03-14,GENUINE PARTS CO
GILD,Gilead,882095,Health Care,,375558103,2022-03-14,GILEAD SCIENCES INC
GPN,Global Payments,1123360,Information Technology,,37940X102,2022-03-11,GLOBAL PAYMENTS INC
GL,Globe Life,320335,Financials,,37959E102,2022-03-14,GLOBE LIFE INC COM (DE)
GM,GM,1467858,Consumer Discretionary,,37045V100,2022-03-11,GENERAL MOTORS COMPANY COM STK
GS,Goldman Sachs,886982,Financials,,38141G104,2022-03-14,GOLDMAN SACHS GROUP INC
GWW,Grainger,277135,Industrials,,384802104,2022-03-14,GRAINGER W.W.INC
HAL,Halliburton,45012,Energy,,406216101,2022-03-11,HALLIBURTON CO COM
HIG,Hartford (The),874766,Financials,,416515104,2022-03-14,HARTFORD FIN SER GP INC
HAS,Hasbro,46080,Consumer Discretionary,,418056107,2022-03-04,HASBRO INC
HCA,HCA Healthcare,860730,Health Care,,40412C101,2022-03-11,HCA HEALTHCARE INC COM STK
PEAK,Healthpeak,765880,Real Estate,,42250P103,2022-03-14,HEALTHPEAK PPTYS INC COM (MD) 
HSIC,Henry Schein,1000228,Health Care,,806407102,2022-03-14,SCHEIN (HENRY) INC
HSY,Hershey's,47111,Consumer Staples,,427866108,2022-03-08,THE HERSHEY COMPANY
HES,Hess,4447,Energy,,42809H107,2022-03-10,HESS CORPORATION
HPE,Hewlett Packard Enterprise,1645590,Information Technology,,42824C109,2022-03-14,HEWLETT PACKARD ENTERPRISE CO 
HLT,Hilton,1585689,Consumer Discretionary,,43300A203,2022-03-09,HILTON WORLDWIDE HLDGS INC COM
HOLX,Hologic,859737,Health Care,,436440101,2022-03-14,HOLOGIC INC
HD,Home Depot,354950,Consumer Discretionary,,437076102,2022-03-14,HOME DEPOT INC
HON,Honeywell,773840,Industrials,,438516106,2022-03-10,HONEYWELL INTERNATIONAL INC
HRL,Hormel,48465,Consumer Staples,,440452100,2022-03-10,HORMEL FOODS CORPORATION
HST,Host Hotels & Resorts,1070750,Real Estate,,44107P104,2022-03-10,"HOST HOTELS & RESORTS, INC"
HWM,Howmet Aerospace,4281,Industrials,,443201108,2022-03-10,HOWMET AEROSPACE INC COM (PA) 
HPQ,HP,47217,Information Technology,,40434L105,2022-03-14,HP INC COM STK (DE)
HUM,Humana,49071,Health Care,,444859102,2022-03-14,HUMANA INC
HII,Huntington Ingalls Industries,1501585,Industrials,,446413106,2022-03-11,HUNTINGTON INGALLS INDS INC
HBAN,Huntington National Bank,49196,Financials,,446150104,2022-03-09,HUNTINGTON BANCSHARES INC
IBM,IBM,51143,Information Technology,,459200101,2022-03-14,INTL BUSINESS MACHINES CORP
IEX,IDEX,832101,Industrials,,45167R104,2022-03-14,IDEX CORPORATION
IDXX,Idexx Laboratories,874716,Health Care,,45168D104,2022-03-14,IDEXX LABORATORIES CORP
ITW,Illinois Tool Works,49826,Industrials,,452308109,2022-03-14,ILLINOIS TOOL WORKS
ILMN,Illumina,1110803,Health Care,,452327109,2022-03-07,ILLUMINA INC.
INCY,Incyte,879169,Health Care,,45337C102,2022-03-07,INCYTE CORPORATION
IR,Ingersoll Rand,1699150,Industrials,,45687V106,2022-03-10,INGERSOLL RAND INC COM (DE)
INTC,Intel,50863,Information Technology,,458140100,2022-03-09,INTEL CORP;COM USD0.001
ICE,Intercontinental Exchange,1571949,Financials,,45866F104,2022-03-14,INTERCONTINENTAL EXCHANGE INC 
IFF,International Flavors & Fragrances,51253,Materials,,459506101,2022-03-14,INTL FLAVORS & FRAGRANCES
IP,International Paper,51434,Materials,,460146103,2022-03-11,INTERNATIONAL PAPER CO
IPG,Interpublic Group,51644,Communication Services,,460690100,2022-03-14,INTERPUBLIC GROUP COS INC
INTU,Intuit,896878,Information Technology,,461202103,2022-03-14,INTUIT INC
ISRG,Intuitive Surgical,1035267,Health Care,,46120E602,2022-03-14,INTUITIVE SURGICAL INC
IVZ,Invesco,914208,Financials,,G491BT108,2022-03-10,INVESCO LTD (NEW)
IPGP,IPG Photonics,1111928,Information Technology,,44980X109,2022-03-14,IPG PHOTONICS CORPORATION COM 
IQV,IQVIA,1478242,Health Care,,46266C105,2022-03-11,IQVIA HOLDINGS INC (DE)
IRM,Iron Mountain,1020569,Real Estate,,46284V101,2022-03-11,IRON MOUNTAIN INC COM STK NEW 
JBHT,J.B. Hunt,728535,Industrials,,445658107,2022-03-14,HUNT J B TRANSPORT SVCS INC
JKHY,Jack Henry & Associates,779152,Information Technology,,426281101,2022-03-10,HENRY JACK & ASSOCIATES INC
J,Jacobs,52988,Industrials,,469814107,2022-03-11,JACOBS ENGINEERING GROUP INC
JNJ,Johnson & Johnson,200406,Health Care,,478160104,2022-03-14,JOHNSON AND JOHNSON
JCI,Johnson Controls,833444,Industrials,,G51502105,2022-03-10,JOHNSON CTLS INTL PLC SHS (IRL
JPM,JPMorgan Chase,19617,Financials,,46625H100,2022-03-14,JPMORGAN CHASE & CO COM STK
JNPR,Juniper Networks,1043604,Information Technology,,48203R104,2022-03-11,JUNIPER NETWORKS INC
K,Kellogg's,55067,Consumer Staples,,487836108,2022-03-11,KELLOGG CO
KEY,KeyCorp,91576,Financials,,493267108,2022-03-11,KEYCORP (NEW)
KEYS,Keysight,1601046,Information Technology,,49338L103,2022-03-10,KEYSIGHT TECHNOLOGIES INC COM 
KMB,Kimberly-Clark,55785,Consumer Staples,,494368103,2022-03-08,KIMBERLY CLARK CORP
KIM,Kimco Realty,879101,Real Estate,,49446R109,2022-03-14,KIMCO REALTY CORPORATION
KMI,Kinder Morgan,1506307,Energy,,49456B101,2022-03-14,KINDER MORGAN INC (DE)
KLAC,KLA,319201,Information Technology,,482480100,2022-03-14,KLA CORPORATION COMMON STOCK
KHC,Kraft Heinz,1637459,Consumer Staples,,500754106,2022-03-10,KRAFT HEINZ CO COM
KR,Kroger,56873,Consumer Staples,,501044101,2022-03-11,KROGER CO
LHX,L3Harris,202058,Industrials,,502431109,2022-03-14,L3 HARRIS TECHNOLOGIES INC COM
LH,LabCorp,920148,Health Care,,50540R409,2022-03-09,LABORATORY CRP AMER HLDGS(NEW)
LRCX,Lam Research,707549,Information Technology,,512807108,2022-03-08,LAM RESEARCH CORP
LW,Lamb Weston,1679273,Consumer Staples,,513272104,2022-03-14,LAMB WESTON HLDGS INC COM STK 
LVS,Las Vegas Sands,1300514,Consumer Discretionary,,517834107,2022-03-09,LAS VEGAS SANDS CORP
LDOS,Leidos,1336920,Industrials,,525327102,2022-03-14,LEIDOS HLDGS INC COM STK (NV) 
LEN,Lennar,920760,Consumer Discretionary,A,526057104,2022-03-14,LENNAR CORP CL A COMMON
LLY,Lilly,59478,Health Care,,532457108,2022-03-14,ELI LILLY AND CO;COM NPV
LNC,Lincoln Financial,59558,Financials,,534187109,2022-03-10,LINCOLN NATIONAL CORP
LIN,Linde,1707925,Materials,,G5494J103,2022-03-14,LINDE PLC SHS (IRL)
LYV,Live Nation Entertainment,1335258,Communication Services,,538034109,2022-03-14,"LIVE NATION ENTERTAINMENT, INC"
LKQ,LKQ Corporation,1065696,Consumer Discretionary,,501889208,2022-03-14,LKQ CORP
LMT,Lockheed Martin,936468,Industrials,,539830109,2022-03-14,LOCKHEED MARTIN CORP
L,Loews Corporation,60086,Financials,,540424108,2022-03-14,LOEWS CORP
LOW,Lowe's,60667,Consumer Discretionary,,548661107,2022-03-14,LOWES COMPANIES INC
LUMN,Lumen,18926,Communication Services,,550241103,2022-03-11,"LUMEN TECHNOLOGIES, INC. COM ("
LYB,LyondellBasell,1489393,Materials,,N53745100,2022-03-14,LYONDELLBASELL IND NV ORD SHS 
MTB,M&T Bank,36270,Financials,,55261F104,2022-03-14,M AND T BANK CORP
MRO,Marathon Oil,101778,Energy,,565849106,2022-03-14,MARATHON OIL CORP
MPC,Marathon Petroleum,1510295,Energy,,56585A102,2022-03-11,MARATHON PETE CORP COM STK (DE
MKTX,MarketAxess,1278021,Financials,,57060D108,2022-03-14,MARKET
MAR,Marriott International,1048286,Consumer Discretionary,A,571903202,2022-03-14,MARRIOTT INT'L INC(NEW) CL A
MMC,Marsh & McLennan,62709,Financials,,571748102,2022-03-14,MARSH & MCLENNAN COS INC
MLM,Martin Marietta,916076,Materials,,573284106,2022-03-08,MARTIN MARIETTA MATERIALS INC 
MAS,Masco,62996,Industrials,,574599106,2022-03-04,MASCO CORP
MA,Mastercard,1141391,Information Technology,A,57636Q104,2022-03-14,MASTERCARD INCORPORATED CL A C
MTCH,Match Group,891103,Communication Services,,57667L107,2022-03-14,MATCH GROUP INC COM STK (DE)
MKC,McCormick,63754,Consumer Staples,nonvoting,579780206,2022-03-14,MCCORMICK & CO INC NON-VTG COM
MCD,McDonald's,63908,Consumer Discretionary,,580135101,2022-03-09,MCDONALDS CORP
MCK,McKesson,927653,Health Care,,58155Q103,2022-03-14,MCKESSON CORPORATION
MDT,Medtronic,1613103,Health Care,,G5960L103,2022-03-14,MEDTRONIC PLC ORD SHS (IRL)
MRK,Merck,310158,Health Care,,58933Y105,2022-03-11,MERCK & CO INC;COM USD0.01
FB,Meta,1326801,Communication Services,A,30303M102,2022-03-14,"META PLATFORMS, INC. CLASS A C"
MET,MetLife,1099219,Financials,,59156R108,2022-03-14,"METLIFE, INC"
MTD,Mettler Toledo,1037646,Health Care,,592688105,2022-03-09,METTLER-TOLEDO INT'L INC
MGM,MGM Resorts,789570,Consumer Discretionary,,552953101,2022-03-14,MGM RESORTS INTERNATIONAL COM 
MCHP,Microchip,827054,Information Technology,,595017104,2022-03-03,MICROCHIP TECHNOLOGY INC
MU,Micron,723125,Information Technology,,595112103,2022-03-08,MICRON TECHNOLOGY INC
MSFT,Microsoft,789019,Information Technology,,594918104,2022-03-11,MICROSOFT CORP;COM USD0.000012
MAA,Mid-America Apartments,912595,Real Estate,,59522J103,2022-03-14,MID-AMERICAN APARTMENT COMMUN 
MRNA,Moderna,1682852,Health Care,,60770K107,2022-03-14,MODERNA INC COM
MHK,Mohawk Industries,851968,Consumer Discretionary,,608190104,2022-03-11,MOHAWK INDUSTRIES INC
MOH,Molina Healthcare,1179929,Health Care,,60855R100,2022-03-14,"MOLINA HEALTHCARE,INC."
TAP,Molson Coors,24545,Consumer Staples,B,60871R209,2022-03-14,MOLSON COORS BEVERAGE COMPANY 
MDLZ,Mondelez International,1103982,Consumer Staples,A,609207105,2022-03-11,MONDELEZ INTL INC;COM USD0.01 
MPWR,Monolithic Power Systems,1280452,Information Technology,,609839105,2022-02-23,"MONOLITHIC POWER SYSTEMS, INC "
MNST,Monster Beverage,865752,Consumer Staples,,61174X109,2022-03-14,MONSTER BEVERAGE CORP NEW
MCO,Moody's,1059556,Financials,,615369105,2022-03-11,MOODY'S CORPORATION
MS,Morgan Stanley,895421,Financials,,617446448,2022-03-10,MORGAN STANLEY
MOS,Mosaic,1285785,Materials,,61945C103,2022-03-14,MOSAIC COMPANY (HLDG COM) NEW 
MSI,Motorola Solutions,68505,Information Technology,,620076307,2022-03-14,MOTOROLA SOLUTIONS INC COM NEW
MSCI,MSCI,1408198,Financials,,55354G100,2022-03-10,MSCI INC COM STK (DE)
NDAQ,Nasdaq,1120193,Financials,,631103108,2022-03-09,NASDAQ INC.COM STK
NTAP,NetApp,1002047,Information Technology,,64110D104,2022-03-11,NETAPP INC COM STK (DE)
NFLX,Netflix,1065280,Communication Services,,64110L106,2022-03-10,NETFLIX COM INC
NWL,Newell Brands,814453,Consumer Discretionary,,651229106,2022-03-01,NEWELL BRANDS INC
NEM,Newmont,1164727,Materials,,651639106,2022-03-11,NEWMONT CORPORATION
NWSA,News Corp,1564708,Communication Services,A,65249B109,2022-03-08,NEWS CORP NEW CL A COM STK (DE
NWS,News Corp,1564708,Communication Services,B,65249B208,2022-03-14,NEWS CORP NEW CL B COM STK (DE
NEE,NextEra Energy,753308,Utilities,,65339F101,2022-03-08,NEXTERA ENERGY INC COM
NLSN,Nielsen,1492633,Industrials,,G6518L108,2022-03-14,NIELSEN HLDGS PLC SHS EUR (GBR
NKE,Nike,320187,Consumer Discretionary,B,654106103,2022-03-14,NIKE INC CL-B
NI,NiSource,1111711,Utilities,,65473P105,2022-03-11,NISOURCE INC (HOLDING CO)
NDSN,Nordson,72331,Industrials,,655663102,2022-03-09,NORDSON CORP
NSC,Norfolk Southern,702165,Industrials,,655844108,2022-03-14,NORFOLK SOUTHERN CORP
NTRS,Northern Trust,73124,Financials,,665859104,2022-03-14,NORTHERN TRUST CORP
NOC,Northrop Grumman,1133421,Industrials,,666807102,2022-03-11,NORTHROP GRUMMAN CP (HLDG CO) 
NLOK,NortonLifeLock,849399,Information Technology,,668771108,2022-03-14,NORTONLIFELOCK INC COM
NCLH,Norwegian Cruise Line Holdings,1513761,Consumer Discretionary,,G66721104,2022-03-14,NORWEGIAN CRUISE LINE HLDGS LT
NRG,NRG Energy,1013871,Utilities,,629377508,2022-03-11,NRG ENERGY INC
NUE,Nucor,73309,Materials,,670346105,2022-03-09,NUCOR CORP
NVDA,Nvidia,1045810,Information Technology,,67066G104,2022-03-14,NVIDIA CORP
NVR,NVR,906163,Consumer Discretionary,,62944T105,2022-03-14,NVR INC (NEW)
NXPI,NXP,1413447,Information Technology,,N6596X109,2022-03-10,NXP SEMICONDUCTORS N V
ORLY,O'Reilly Automotive,898173,Consumer Discretionary,,67103H107,2022-03-11,O REILLY AUTOMOTIVE INC COM
OXY,Occidental Petroleum,797468,Energy,,674599105,2022-03-14,OCCIDENTAL PETROLEUM CORP
ODFL,Old Dominion,878927,Industrials,,679580100,2022-03-14,OLD DOMINION FREIGHT LINES INC
OMC,Omnicom Group,29989,Communication Services,,681919106,2022-03-14,OMNICOM GROUP INC
OKE,Oneok,1039684,Energy,,682680103,2022-03-11,ONEOK INC (NEW)
ORCL,Oracle,1341439,Information Technology,,68389X105,2022-03-14,ORACLE CORPORATION
OGN,Organon,1821825,Health Care,,68622V106,2022-03-14,ORGANON & CO
OTIS,Otis,1781335,Industrials,,68902V107,2022-03-11,OTIS WORLDWIDE CORP COM
PCAR,Paccar,75362,Industrials,,693718108,2022-03-10,PACCAR INC
PKG,Packaging Corporation of America,75677,Materials,,695156109,2022-03-14,PACKAGING CORP OF AMERICA
VIAC,Paramount,813828,Communication Services,B,92556H206,2022-03-14,PENDING UPDATE TO PARA
PH,Parker,76334,Industrials,,701094104,2022-03-14,PARKER-HANNIFIN CORP
PAYX,Paychex,723531,Information Technology,,704326107,2022-03-14,PAYCHEX INC
PAYC,Paycom,1590955,Information Technology,,70432V102,2022-03-10,PAYCOM SOFTWARE INC COM STK (D
PYPL,PayPal,1633917,Information Technology,,70450Y103,2022-03-11,PAYPAL HLDGS INC COM
PENN,Penn National Gaming,921738,Consumer Discretionary,,707569109,2022-03-14,PENN NATL GAMING INC
PNR,Pentair,77360,Industrials,,G7S00T104,2022-03-04,PENTAIR PLC
PBCT,People's United Financial,1378946,Financials,,712704105,2022-03-11,PEOPLE'S UNITED FINANCIAL INC 
PEP,PepsiCo,77476,Consumer Staples,,713448108,2022-03-09,PEPSICO INC;CAP USD0.016666
PKI,PerkinElmer,31791,Health Care,,714046109,2022-01-25,PERKINELMER INC
PFE,Pfizer,78003,Health Care,,717081103,2022-03-14,PFIZER INC;COM USD0.05
PM,Philip Morris International,1413329,Consumer Staples,,718172109,2022-03-14,PHILIP MORRIS INTL;COM STK NPV
PSX,Phillips 66,1534701,Energy,,718546104,2022-03-14,PHILLIPS 66 COMMON STOCK
PNW,Pinnacle West,764622,Utilities,,723484101,2022-03-11,PINNACLE WEST CAP CORP
PXD,Pioneer Natural Resources,1038357,Energy,,723787107,2022-03-10,PIONEER NAT RES CO
PNC,PNC Financial Services,713676,Financials,,693475105,2022-03-11,"PNC FINL SVCS GRP,INC(THE)"
POOL,Pool Corporation,945841,Consumer Discretionary,,73278L105,2022-03-14,POOL CORPORATION COM STK
PPG,PPG Industries,79879,Materials,,693506107,2022-03-14,PPG INDUSTRIES INC
PPL,PPL,922224,Utilities,,69351T106,2022-03-10,PPL CORPORATION
PFG,Principal,1126328,Financials,,74251V102,2022-03-11,PRINCIPAL FINANCIAL GROUP
PG,Procter & Gamble,80424,Consumer Staples,,742718109,2022-03-14,PROCTER & GAMBLE;COM NPV
PGR,Progressive,80661,Financials,,743315103,2022-03-14,PROGRESSIVE CORP
PLD,Prologis,1045609,Real Estate,,74340W103,2022-03-14,"PROLOGIS, INC COM"
PRU,Prudential,1137774,Financials,,744320102,2022-03-14,PRUDENTIAL FINANCIAL INC.
PEG,PSEG,788784,Utilities,,744573106,2022-03-04,PUB SVC ENTERPRISE GROUP INC
PTC,PTC,857005,Information Technology,,69370C100,2022-03-14,PTC INC COM STK
PSA,Public Storage,1393311,Real Estate,,74460D109,2022-03-14,PUBLIC STORAGE (MARYLAND)
PHM,PulteGroup,822416,Consumer Discretionary,,745867101,2022-03-10,"PULTEGROUP,INC COMMON STOCK"
PVH,PVH,78239,Consumer Discretionary,,693656100,2022-03-14,PVH CORP COM STK (DE)
QRVO,Qorvo,1604778,Information Technology,,74736K101,2022-03-10,QORVO INC COMMON STOCK
QCOM,Qualcomm,804328,Information Technology,,747525103,2022-03-02,QUALCOMM INC
PWR,Quanta,1050915,Industrials,,74762E102,2022-03-14,QUANTA SERVICES INC
DGX,Quest Diagnostics,1022079,Health Care,,74834L100,2022-03-07,QUEST DIAGNOSTICS INC.
RL,Ralph Lauren,1037038,Consumer Discretionary,A,751212101,2022-03-11,RALPH LAUREN CORPORATION
RJF,Raymond James,720005,Financials,,754730109,2022-03-14,RAYMOND JAMES FINANCIAL INC
RTX,Raytheon Technologies,101829,Industrials,,75513E101,2022-03-14,RAYTHEON TECHNOLOGIES CORP (DE
O,Realty Income,726728,Real Estate,,756109104,2022-03-07,REALTY INCOME CORP
REG,Regency Centers,910606,Real Estate,,758849103,2022-03-14,REGENCY CENTERS CORP
REGN,Regeneron,872589,Health Care,,75886F107,2022-03-14,REGENERON PHARMACEUTICALS INC 
RF,Regions,1281761,Financials,,7591EP100,2022-03-14,REGIONS FINANCIAL CORP (NEW)
RSG,Republic Services,1060391,Industrials,,760759100,2022-03-11,REPUBLIC SERVICES INC
RMD,ResMed,943819,Health Care,,761152107,2022-03-07,RESMED INC
RHI,Robert Half,315213,Industrials,,770323103,2022-03-14,ROBERT HALF INTERNATIONAL INC 
ROK,Rockwell Automation,1024478,Industrials,,773903109,2022-03-14,ROCKWELL AUTOMATION INC.
ROL,Rollins,84839,Industrials,,775711104,2022-03-14,ROLLINS INC
ROP,Roper,882835,Industrials,,776696106,2022-03-14,ROPER TECHNOLOGIES INC COM STK
ROST,Ross,745732,Consumer Discretionary,,778296103,2022-03-11,ROSS STORES INC
RCL,Royal Caribbean Group,884887,Consumer Discretionary,,V7780T103,2022-03-14,ROYAL CARIBBEAN GROUP
SPGI,S&P Global,64040,Financials,,78409V104,2022-03-14,S&P GLOBAL INC. COM
CRM,Salesforce,1108524,Information Technology,,79466L302,2022-03-14,SALESFORCE.COM INC
SBAC,SBA Communications,1034054,Real Estate,A,78410G104,2022-03-10,SBA COMMUNICATIONS CORP NEW CL
SLB,Schlumberger,87347,Energy,,806857108,2022-03-14,SCHLUMBERGER LTD
STX,Seagate,1137789,Information Technology,,G7997R103,2022-03-03,SEAGATE TECH HLDS PLC ORDINARY
SEE,Sealed Air,1012100,Materials,,81211K100,2022-03-14,SEALED AIR CORP(NEW)
SRE,Sempra Energy,1032208,Utilities,,816851109,2022-03-14,SEMPRA COM (CA)
NOW,ServiceNow,1373715,Information Technology,,81762P102,2022-03-14,SERVICENOW INC COM
SHW,Sherwin-Williams,89800,Materials,,824348106,2022-03-14,SHERWIN-WILLIAMS CO
SBNY,Signature Bank,1288784,Financials,,82669G104,2022-03-14,SIGNATURE BANK
SPG,Simon,1063761,Real Estate,A,828806109,2022-03-10,SIMON PROPERTIES GROUP INC
SWKS,Skyworks,4127,Information Technology,,83088M102,2022-03-14,SKYWORKS SOLUTIONS INC
SJM,Smucker,91419,Consumer Staples,,832696405,2022-03-08,J.M. SMUCKER CO (NEW)
SNA,Snap-on,91440,Industrials,,833034101,2022-03-14,SNAP ON INCORPORATED (HOLDING)
SEDG,SolarEdge,1419612,Information Technology,,83417M104,2022-03-14,SOLAREDGE TECHNOLOGIES INC COM
SO,Southern Company,92122,Utilities,,842587107,2022-03-14,SOUTHERN CO
LUV,Southwest Airlines,92380,Industrials,,844741108,2022-03-11,SOUTHWEST AIRLINES CO
SWK,Stanley Black & Decker,93556,Industrials,,854502101,2022-03-09,"STANLEY BLACK & DECKER, INC CO"
SBUX,Starbucks,829224,Consumer Discretionary,,855244109,2022-03-14,STARBUCKS CORPORATION
STT,State Street,93751,Financials,,857477103,2022-03-10,STATE STREET CORP
STE,Steris,1757898,Health Care,,G8473T100,2022-03-14,STERIS PLC ORD SHS(IRL)
SYK,Stryker,310764,Health Care,,863667101,2022-03-08,STRYKER CORP
SIVB,SVB Financial,719739,Financials,,78486Q101,2022-03-14,SVB FINANCIAL GROUP
SYF,Synchrony,1601712,Financials,,87165B103,2022-03-10,SYNCHRONY FINL COM STK (DE)
SNPS,Synopsys,883241,Information Technology,,871607107,2022-03-14,SYNOPSYS INC
SYY,Sysco,96021,Consumer Staples,,871829107,2022-03-14,SYSCO CORP
TMUS,T-Mobile,1283699,Communication Services,,872590104,2022-03-14,T-MOBILE US INC COM
TROW,T. Rowe Price,1113169,Financials,,74144T108,2022-03-11,T-ROWE PRICE GROUP INC
TTWO,Take-Two Interactive,946581,Communication Services,,874054109,2022-03-14,TAKE-TWO INTERACTIVE SOFTWARE 
TPR,Tapestry,1116132,Consumer Discretionary,,876030107,2022-03-07,TAPESTRY INC COM STK (MD)
TGT,Target,27419,Consumer Discretionary,,87612E106,2022-03-11,TARGET CORPORATION
TEL,TE Connectivity,1385157,Information Technology,,H84989104,2022-03-14,TE CONNECTIVITY LTD
TDY,Teledyne,1094285,Industrials,,879360105,2022-02-16,TELEDYNE TECHNOLOGIES INC
TFX,Teleflex,96943,Health Care,,879369106,2022-03-14,TELEFLEX INC
TER,Teradyne,97210,Information Technology,,880770102,2022-03-11,TERADYNE INC
TSLA,Tesla,1318605,Consumer Discretionary,,88160R101,2022-03-14,TESLA INC COM STK (DE)
TXN,Texas Instruments,97476,Information Technology,,882508104,2022-03-14,TEXAS INSTRUMENTS
TXT,Textron,217346,Industrials,,883203101,2022-03-14,TEXTRON INCORPORATED OF DEL
TMO,Thermo Fisher Scientific,97745,Health Care,,883556102,2022-03-01,THERMO FISHER SCIENTIFIC INC. 
TJX,TJX Companies,109198,Consumer Discretionary,,872540109,2022-03-09,TJX COMPANIES INC
TSCO,Tractor Supply,916365,Consumer Discretionary,,892356106,2022-03-11,TRACTOR SUPPLY CO
TT,Trane Technologies,1466258,Industrials,,G8994E103,2022-03-14,TRANE TECHNOLOGIES PLC SHS (IR
TDG,TransDigm,1260221,Industrials,,893641100,2022-03-14,TRANSDIGM GROUP INCORPORATED C
TRV,Travelers,86312,Financials,,89417E109,2022-03-14,"TRAVELERS COMPANIES, INC. (THE"
TRMB,Trimble,864749,Information Technology,,896239100,2022-03-09,TRIMBLE INC COM (DEL)
TFC,Truist,92230,Financials,,89832Q109,2022-03-14,TRUIST FINL CORP COM (NC)
TWTR,Twitter,1418091,Communication Services,,90184L102,2022-03-14,TWITTER INC COM STK (DE)
TYL,Tyler Technologies,860731,Information Technology,,902252105,2022-03-10,TYLER TECHNOLOGIES INC
TSN,Tyson,100493,Consumer Staples,A,902494103,2022-03-14,TYSON FOODS INC CL A
USB,U.S. Bank,36104,Financials,,902973304,2022-03-11,U.S.BANCORP (NEW)
UDR,UDR,74208,Real Estate,,902653104,2022-03-14,UDR INC COM
ULTA,Ulta Beauty,1403568,Consumer Discretionary,,90384S303,2022-03-09,ULTA BEAUTY INC COM STK
UAA,Under Armour,1336917,Consumer Discretionary,A,904311107,2022-03-14,UNDER ARMOUR INC CL A
UA,Under Armour,1336917,Consumer Discretionary,C,904311206,2022-03-14,UNDER ARMOUR INC CL C
UNP,Union Pacific,100885,Industrials,,907818108,2022-03-14,UNION PACIFIC CORPORATION
UAL,United Airlines,100517,Industrials,,910047109,2022-03-14,"UNITED AIRLINES HOLDINGS, INC."
UPS,United Parcel Service,1090727,Industrials,B,911312106,2022-03-11,"UNITED PARCEL SERVICE,INC.CL B"
URI,United Rentals,1067701,Industrials,,911363109,2022-03-14,UNITED RENTALS INC
UNH,UnitedHealth Group,731766,Health Care,,91324P102,2022-03-14,UNITEDHEALTH GROUP INC
UHS,Universal Health Services,352915,Health Care,B,913903100,2022-03-14,UNIVERSAL HEALTH SVCS CL-B
VLO,Valero,1035002,Energy,,91913Y100,2022-03-09,VALERO ENERGY CORP (NEW)
VTR,Ventas,740260,Real Estate,,92276F100,2022-03-11,VENTAS INC
VRSN,Verisign,1014473,Information Technology,,92343E102,2022-03-14,VERISIGN INC
VRSK,Verisk,1442145,Industrials,,92345Y106,2022-03-11,VERISK ANALYTICS INC COM
VZ,Verizon,732712,Communication Services,,92343V104,2022-03-10,VERIZON COMMUNICATIONS
VRTX,Vertex,875320,Health Care,,92532F100,2022-03-10,VERTEX PHARMACEUTICALS INC
VFC,VF Corporation,103379,Consumer Discretionary,,918204108,2022-03-10,V. F. CORPORATION
VTRS,Viatris,1792044,Health Care,,92556V106,2022-03-14,VIATRIS INC COM
V,Visa,1403161,Information Technology,A,92826C839,2022-03-14,VISA INC CLASS A COM
VNO,Vornado Realty Trust,899689,Real Estate,,929042109,2022-03-14,VORNADO REALTY TRUST
VMC,Vulcan Materials,1396009,Materials,,929160109,2022-03-14,VULCAN MATERIALS COMPANY (HOLD
WAB,Wabtec,943452,Industrials,,929740108,2022-03-14,WABTEC (COMMON)
WBA,Walgreens Boots Alliance,1618921,Consumer Staples,,931427108,2022-03-14,WALGREEN BOOTS ALLIANCE INC CO
WMT,Walmart,104169,Consumer Staples,,931142103,2022-03-14,WAL-MART INC (DE)
WM,Waste Management,823768,Industrials,,94106L109,2022-03-07,WASTE MANAGEMENT INC(NEW)
WAT,Waters,1000697,Health Care,,941848103,2022-03-14,WATERS CORP
WEC,WEC Energy Group,783325,Utilities,,92939U106,2022-03-14,WEC ENERGY GROUP INC COM STK (
WFC,Wells Fargo,72971,Financials,,949746101,2022-03-14,WELLS FARGO & CO(NEW)
WELL,Welltower,766704,Real Estate,,95040Q104,2022-03-10,WELLTOWER INC COM STK (DE)
WST,West Pharmaceutical Services,105770,Health Care,,955306105,2022-03-10,WEST PHARMACEUTICAL SERV INC
WDC,Western Digital,106040,Information Technology,,958102105,2022-03-10,WESTERN DIGITAL CORP
WRK,WestRock,1732845,Materials,,96145D105,2022-03-14,WESTROCK COMP COM STK (DE)
WY,Weyerhaeuser,106535,Real Estate,,962166104,2022-03-09,WEYERHAEUSER COMPANY
WHR,Whirlpool,106640,Consumer Discretionary,,963320106,2022-03-04,WHIRLPOOL CORPORATION
WMB,Williams,107263,Energy,,969457100,2022-03-14,WILLIAMS COMPANIES
WTW,Willis Towers Watson,1140536,Financials,,G96629103,2022-03-14,WILLIS TOWERS WATSON PUB LTD C
WYNN,Wynn Resorts,1174922,Consumer Discretionary,,983134107,2022-03-14,WYNN RESORTS LTD
XEL,Xcel Energy,72903,Utilities,,98389B100,2022-03-11,XCEL ENERGY INC
XYL,Xylem,1524472,Industrials,,98419M100,2022-03-11,XYLEM INC COM STK
YUM,Yum! Brands,1041061,Consumer Discretionary,,988498101,2022-03-14,"YUM BRANDS, INC"
ZBRA,Zebra,877212,Information Technology,A,989207105,2022-03-02,ZEBRA TECHNOLOGIES CORP CL-A
ZBH,Zimmer Biomet,1136869,Health Care,,98956P102,2022-03-11,ZIMMER BIOMET HOLDINGS INC COM
ZION,Zions Bancorp,109380,Financials,,989701107,2022-03-10,ZIONS BANCORPORATION N.A. COMM
ZTS,Zoetis,1555280,Health Care,,98978V103,2022-03-14,ZOETIS INC. CLASS A COM STK
